<svg xmlns="http://www.w3.org/2000/svg" width="9" height="18" viewBox="0 0 9 18">
    <path fill="#FC3" fill-rule="nonzero" d="M8.888 9.034l-.607-.696L1.81.788.18 2.18l5.877 6.853L.18 15.887l1.63 1.394L8.28 9.73z"/>
</svg>
