<?xml version="1.0" encoding="UTF-8"?>
<svg width="87px" height="87px" viewBox="0 0 87 87" version="1.1" xmlns="http://www.w3.org/2000/svg" xmlns:xlink="http://www.w3.org/1999/xlink">
    <!-- Generator: Sketch 51.2 (57519) - http://www.bohemiancoding.com/sketch -->
    <title>ValuesIcon5</title>
    <desc>Created with Sketch.</desc>
    <defs></defs>
    <g id="ValuesIcon5" stroke="none" stroke-width="1" fill="none" fill-rule="evenodd">
        <g id="Group-4" transform="translate(11.000000, 6.000000)" fill="#1870E6">
            <path d="M64.6050469,49.8617454 C64.9023528,49.3768429 64.9589834,48.7822311 64.7501661,48.2513536 L56.1777494,26.2968188 C55.9795424,11.9978293 43.2768551,0.0202397334 28.2620555,0.0202397334 C16.5463256,-0.0151521003 5.43676917,7.47780469 1.81241345,17.8167324 C-0.633301798,23.2072367 0.545338685,33.0752701 1.57527185,41.8000004 C1.91151239,44.635062 2.23714263,47.3179008 2.38225278,49.5371844 C2.58753628,52.5280027 2.54860164,55.5258886 2.26544885,58.5095488 L0.807189325,73.8315154 L4.43154505,74.1748415 L5.88980458,58.8247862 C6.19065329,55.6464075 6.23313074,52.4502694 6.01721881,49.2646419 C5.86148024,46.9533902 5.53585906,44.228056 5.1925329,41.346965 C4.28644397,33.4823849 3.09013475,23.6963526 5.1925329,19.2646716 C5.22084818,19.2080411 5.24208691,19.1514105 5.26332563,19.0947799 C8.32844327,10.0869874 18.0119969,3.6097201 28.2444592,3.6097201 C41.4072131,3.6097201 52.5530131,14.153877 52.5530131,26.6406886 C52.5530131,26.8672108 52.5954815,27.0901902 52.6804273,27.3025594 L60.5166468,47.3352795 L54.127995,47.9440626 C53.3351672,48.0183891 52.6838704,48.6023906 52.5246706,49.3845628 L49.9161312,62.0698078 L38.961516,61.326534 C38.4482982,61.2911422 37.9456997,61.4787298 37.5811801,61.836209 C37.2130815,62.1936883 37.0113317,62.6892102 37.0325705,63.2024099 L37.4502231,74.4931859 L41.0745788,74.3586861 L40.7312527,65.0821458 L51.2681608,65.7794084 L51.264618,65.7758746 C52.1671642,65.8360389 52.9776698,65.2201884 53.161787,64.3353745 L55.8163558,51.4344802 L63.2633195,50.7265983 C63.8190057,50.6593483 64.3145639,50.3443465 64.6047842,49.8629868 L64.6050469,49.8617454 Z" id="Fill-1"></path>
            <path d="M25.1158791,19.4905505 L25.0238567,19.4905505 L25.0273995,19.4905505 C24.4540174,19.6250504 24.0434775,20.1347254 24.0399438,20.7222878 L24.1213468,25.0969758 L24.1213468,25.1005186 C24.1071937,25.4367591 24.2346079,25.7659322 24.4752833,26.0066075 C24.7088821,26.2508257 25.0309695,26.3888683 25.3707529,26.3959449 L27.7351013,26.5693794 C27.8625155,26.8242169 27.9899388,27.0401198 28.1421346,27.2843379 C28.2978732,27.5285561 28.4394405,27.7727742 28.612875,27.9992964 L27.805894,30.2927887 L27.8094369,30.2927887 C27.6961757,30.5830181 27.6961757,30.9051055 27.8094369,31.1988777 C27.9120786,31.5138886 28.1421436,31.7722598 28.4429924,31.9138362 L32.2584422,33.9525363 C32.7928897,34.2923197 33.497247,34.171982 33.8865934,33.6729263 L33.8865934,33.6092101 L35.2280581,31.6412756 C35.7695912,31.701449 36.3111062,31.701449 36.8526756,31.6412756 L38.247237,33.524219 L38.247237,33.5277618 C38.6082591,34.0515899 39.3090827,34.2179479 39.8683207,33.9170992 L43.5918026,31.6342081 C44.1191735,31.2767288 44.292608,30.5829637 43.9988359,30.0202825 L42.9475915,27.8824563 C43.251983,27.4364884 43.5138971,26.9622323 43.7297999,26.4666923 L46.0763891,26.1693864 L46.1471727,26.1693864 C46.7205549,26.0313528 47.1204935,25.518135 47.1169597,24.9270479 L47.0355567,20.5523599 C47.046176,20.2125766 46.9187528,19.8869463 46.6816202,19.646271 C46.4444786,19.4020528 46.1153146,19.267553 45.7755313,19.2640102 L43.4926402,19.0764226 C43.365226,18.8215851 43.2378027,18.6056822 43.085607,18.3614641 C42.9298684,18.1172459 42.7953776,17.8907237 42.6325625,17.671278 L43.5386514,15.4697537 C43.6519125,15.1759816 43.6519125,14.8538941 43.5386514,14.5636648 C43.4360097,14.2451202 43.2059446,13.9832061 42.9050959,13.8380869 L39.1427428,11.7817181 C38.877286,11.5976733 38.548122,11.5410427 38.2366539,11.6189029 C37.9535011,11.68261 37.6986636,11.8383486 37.511076,12.061328 L37.511076,12.1144158 L36.1696114,14.0823503 L36.1731542,14.0823503 C35.6280873,14.022186 35.0830386,14.022186 34.5414692,14.0823503 L33.0478722,12.1604451 L33.0443294,12.1604451 C32.672688,11.636617 31.9648151,11.4808784 31.405577,11.799423 L27.6820951,14.0823141 C27.0980936,14.4114781 26.8786479,15.1441597 27.1830395,15.7387353 L28.2342838,17.8588022 C27.9334351,18.3012273 27.6750548,18.7684248 27.4626947,19.2568974 L25.1158791,19.4905505 Z M32.9273624,18.492403 L32.9273624,18.4959458 C34.6545491,17.4411676 36.8419384,17.5332263 38.4771571,18.722468 C40.1123758,19.9117097 40.8662418,21.9716123 40.3955286,23.9360131 C39.9212454,25.9004139 38.3107992,27.3869434 36.3145946,27.7055243 C34.3183901,28.0205352 32.3257193,27.1038269 31.2709412,25.3801376 C30.5630592,24.2510602 30.3401161,22.8848593 30.6515479,21.589424 C30.963016,20.2939886 31.7841591,19.1790462 32.9273715,18.4959458 L32.9273624,18.492403 Z" id="Fill-2"></path>
            <path d="M8.86970455,33.963509 L8.80599744,33.963509 C8.43082226,34.2325087 8.29277961,34.7315644 8.47329065,35.1598183 L9.8961221,38.2957014 L9.8961221,38.2921677 C9.9916873,38.5363858 10.1863514,38.731059 10.4305696,38.8266152 C10.6677112,38.9221804 10.9331681,38.9221804 11.1703097,38.8266152 L12.9293907,38.2107556 C13.0922058,38.3558748 13.2656313,38.4726697 13.4461423,38.600093 C13.6266533,38.7275072 13.8177837,38.862007 14.0089051,38.9717344 L14.1363193,40.8759709 C14.1327765,41.1237318 14.2247989,41.3608734 14.387614,41.5449182 C14.5610485,41.7431252 14.8052666,41.8599291 15.0671807,41.8705485 L18.4544129,42.1607778 L18.4579467,42.1607778 C18.9499258,42.2457237 19.4241999,41.9377984 19.551596,41.4564386 L19.551596,41.4033418 L19.9055325,39.591164 L19.9055325,39.5876302 C20.3231851,39.4637497 20.7231328,39.2938581 21.1018417,39.081498 L22.6980986,39.9875869 C23.1299043,40.2601204 23.6962461,40.1504021 24.0006014,39.7433688 L25.9862047,36.9330434 C26.2693575,36.5083142 26.1808689,35.9348958 25.7773784,35.6199393 L24.3545469,34.4165626 C24.4288825,34.0166058 24.4642652,33.6131154 24.4642652,33.2096521 L26.0675896,32.3035632 L26.1136008,32.3035632 C26.488776,32.0310297 26.6303524,31.5355078 26.4498414,31.107254 L25.0270099,27.9713708 C24.9562262,27.6705221 24.7473999,27.4227611 24.4642471,27.3024234 C24.2271055,27.2068582 23.9581149,27.2068582 23.7209733,27.3024234 L21.9618923,27.918283 C21.7990771,27.7731638 21.6256517,27.656369 21.4451407,27.5289457 C21.2646296,27.4015224 21.0912042,27.2741082 20.9000738,27.1679236 L20.9036166,25.3167839 C20.9071594,25.069023 20.815128,24.8248048 20.6487791,24.6372172 C20.4753446,24.4425531 20.2311265,24.3222063 19.9692124,24.311587 L16.5819802,24.0213576 C16.3342192,23.9753374 16.075848,24.0355107 15.8740982,24.1841727 C15.6935872,24.3222063 15.5590873,24.5133367 15.4953802,24.7292396 L15.4953802,24.7823274 L15.1414437,26.5945052 C14.7344105,26.7254622 14.3415394,26.8988967 13.9734045,27.1112568 L12.2956902,26.2051679 C11.8638845,25.9432538 11.3010764,26.0529721 11.0002549,26.4600054 L9.0146516,29.259639 C8.73149881,29.6843681 8.81998745,30.2577865 9.22347792,30.572743 L10.6357081,31.8327503 C10.5578388,32.2433173 10.5189042,32.6645128 10.5189042,33.0821563 L8.86970455,33.963509 Z M14.0973846,30.7461685 C15.0353679,29.3976363 16.6953228,28.7499639 18.2986472,29.107416 C19.9019716,29.4613525 21.1301751,30.7497022 21.4133279,32.3672522 C21.6929379,33.9811778 20.9709028,35.609329 19.5834813,36.4871479 C18.1960779,37.3613788 16.4157038,37.3118338 15.0777729,36.3632675 C14.1964564,35.7509507 13.5983109,34.8095062 13.4178179,33.7511943 C13.2337732,32.6964162 13.4850679,31.6098343 14.108004,30.7356397 L14.0973846,30.7461685 Z" id="Fill-3"></path>
        </g>
    </g>
</svg>